Woerterbuch_ID;Term;Korrekter_LLT_Term;LLT_Code
1;vomitting;vomiting;10047700
2;Mucositis Mouth;Mucositis oral;10028130
3;Mucositis gastrointestinal;Gastrointestinal mucositis;10017981
4;Mucositis anal;Anal mucositis;10065721
5;Infection ZVK;Catheter related infection;10007810
6;arrhytmia;Arrhythmia;10003119
7;bakteraemia;Bacteremia;10003999
8;chill;chills;10008531
9;Conjuctivitis;Conjunctivitis;10010741
10;CRP increase;CRP increased;10011418
11;Dizzyness;Dizziness;10013573
12;Dizzines;Dizziness;10013573
13;edema lower leg;Lower leg edema;10078347
14;edema lower legs;Lower leg edema;10078347
15;ALT;Alanine aminotransferase;10001546
16;ALAT;Alanine aminotransferase;10001546
17;AST;Aspartate aminotransferase;10003476
18;ASAT;Aspartate aminotransferase;10003476
19;GOT;Aspartate aminotransferase;10003476
20;GPT;Alanine aminotransferase;10001546
21;Exantema;Exanthem;10015585
22;fever in neutropenia;Febrile neutropenia;10016288
23;fungal pneumonia;Pneumonia fungal;10061354
24;general worsening of condition;General physical health deterioration;10049438
25;Herpes mouth;Oral herpes;10067152
26;hypokalcemia;Blood calcium decreased;10005395
27;Hypokalzemia;Blood calcium decreased;10005395
28;increased ALT;Alanine aminotransferase increased;10001551
29;increased AST;Aspartate aminotransferase increased;10003481
30;increased bilirubin;Bilirubin increased;10004690
31;increased c-reactive protein;CRP increased;10011418
32;increased CRP;CRP increased;10011418
33;increased GGT;Gamma glutamyl transpeptidase increased;10017668
34;infection of central venous catheter;Central line infection;10054192
35;loss of appetite;Appetite lost;10003028
36;Loss of appetit;Appetite lost;10003028
37;lost of appetite;Appetite lost;10003028
38;neutropenes Fieber;Febrile neutropenia;10016288
39;Petechien;Petechiae;10034754
40;pneumonia mycotic;Pneumonia fungal;10061354
41;VRE Infection;Vancomycin-resistant enterococcal infection;10053621
42;ZVK-Infection;Catheter related infection;10007810
43;Hemorrhage gingiva;Gingival haemorrhage;10072705
44;Infection central venous catheter;Central line infection;10054192
45;Infection lung;Lung infection;10061229
46;Infection lungs;Lung infection;10061229
47;Infection Pneumonia;pneumonia;10035664
48;Infection pulmo;Lung infection;10061229
49;Infection pulmonal;Lung infection;10061229
50;Infection in patient with leukemia origin;Infection in patient with leukemia;10021826
51;Pain Abdomen;abdominal Pain;10000081
52;Pain shoulder;Shoulder pain;10040617
53;pain Thorax;Thorax pain;10043492
54;Febrille neutropenia;Febrile neutropenia;10016288
55;Infection sepsis;Sepsis;10040047
56;Infection Staphylococcus haemolyticus in blood;Staphylococcal infection;10058080
57;tumorlysis;Tumour lysis syndrome;10045170
58;Infection Catheter related infection;Catheter related infection;10007810
59;Infection urine;Urinary tract infection;10046571
60;Pain Whole Body;General body pain;10048971
61;Infection VRE, anal;Vancomycin-resistant enterococcal infection;10053621
62;Infection atypical pneumonia;Atypical pneumonia;10003757
63;Infection Staphylococcus epidermis in blood;Staphylococcus epidermidis infection;10054154
64;Mucositis GIT;Gastrointestinal mucositis;10017981
65;Infection Colon;Large intestine infection;10081959
66;Worsening of Pneumonia;Pneumonia aggravated;10048382
67;Hemorrhage uterus;Hemorrhage uterine;10019592
68;Infection intestine;Enteritis infectious;10058839
69;tumor lysis syndrom;Tumour lysis syndrome;10045170
70;hypokaliemia;Hypokalemia;10021018
71;hyperviscosity syndrom;Hyperviscosity syndrome;10051151
72;infection cannule;Injection site infection;10022076
